…
这个数据展示了各种信仰群体不同收入层次的人数分布。我们可以使用 tidyr 包的 gather() 或者 pivot_longer() 函数将它转换成长数据：

使用 gather()：

```r
relig_income %>% 
  gather(!religion, key = "income", value = "count")

#> # A tibble: 180 x 3
#>    religion                income count
#>    <chr>                   <chr>  <dbl>
#>  1 Agnostic                <$10k     27
#>  2 Atheist                 <$10k     12
#>  3 Buddhist                <$10k     27
#>  4 Catholic                <$10k    418
#>  5 Don’t know/refused      <$10k     15
#>  6 Evangelical Prot        <$10k    575
#>  7 Hindu                   <$10k      1
#>  8 Historically Black Prot <$10k    228
#>  9 Jehovah's Witness       <$10k     20
#> 10 Jewish                  <$10k     19
#> # … with 170 more rows
```

或者：

```r
relig_income %>% 
  gather(2:ncol(.), key = "income", value = "count")
#> # A tibble: 180 x 3
#>    religion                income count
#>    <chr>                   <chr>  <dbl>
#>  1 Agnostic                <$10k     27
#>  2 Atheist                 <$10k     12
#>  3 Buddhist                <$10k     27
#>  4 Catholic                <$10k    418
#>  5 Don’t know/refused      <$10k     15
#>  6 Evangelical Prot        <$10k    575
#>  7 Hindu                   <$10k      1
#>  8 Historically Black Prot <$10k    228
#>  9 Jehovah's Witness       <$10k     20
#> 10 Jewish                  <$10k     19
#> # … with 170 more rows
```

使用 pivot_longer()：

```r
relig_income %>% 
  pivot_longer(!religion, names_to = "income", values_to = "count")

#> # A tibble: 180 x 3
#>    religion income             count
#>    <chr>    <chr>              <dbl>
#>  1 Agnostic <$10k                 27
#>  2 Agnostic $10-20k               34
#>  3 Agnostic $20-30k               60
#>  4 Agnostic $30-40k               81
#>  5 Agnostic $40-50k               76
#>  6 Agnostic $50-75k              137
#>  7 Agnostic $75-100k             122
#>  8 Agnostic $100-150k            109
#>  9 Agnostic >150k                 84
#> 10 Agnostic Don't know/refused    96
#> # … with 170 more rows
```

或者：

```r
relig_income %>% 
  pivot_longer(2:ncol(.), names_to = "income", values_to = "count")
#> # A tibble: 180 x 3
#>    religion income             count
#>    <chr>    <chr>              <dbl>
#>  1 Agnostic <$10k                 27
#>  2 Agnostic $10-20k               34
#>  3 Agnostic $20-30k               60
#>  4 Agnostic $30-40k               81
#>  5 Agnostic $40-50k               76
#>  6 Agnostic $50-75k              137
#>  7 Agnostic $75-100k             122
#>  8 Agnostic $100-150k            109
#>  9 Agnostic >150k                 84
#> 10 Agnostic Don't know/refused    96
#> # … with 170 more rows
```
…
### 列名中含有数值

#### 使用 R 语言

例如这份数据：

```r
read_csv('billboard.csv') -> billboard
billboard

#> # A tibble: 317 x 79
#>    artist   track   date.entered   wk1   wk2   wk3   wk4   wk5   wk6   wk7   wk8
#>    <chr>    <chr>   <date>       <dbl> <dbl> <dbl> <dbl> <dbl> <dbl> <dbl> <dbl>
#>  1 2 Pac    Baby D… 2000-02-26      87    82    72    77    87    94    99    NA
#>  2 2Ge+her  The Ha… 2000-09-02      91    87    92    NA    NA    NA    NA    NA
#>  3 3 Doors… Krypto… 2000-04-08      81    70    68    67    66    57    54    53
#>  4 3 Doors… Loser   2000-10-21      76    76    72    69    67    65    55    59
#>  5 504 Boyz Wobble… 2000-04-15      57    34    25    17    17    31    36    49
#>  6 98^0     Give M… 2000-08-19      51    39    34    26    26    19     2     2
#>  7 A*Teens  Dancin… 2000-07-08      97    97    96    95   100    NA    NA    NA
#>  8 Aaliyah  I Don'… 2000-01-29      84    62    51    41    38    35    35    38
#>  9 Aaliyah  Try Ag… 2000-03-18      59    53    38    28    21    18    16    14
#> 10 Adams, … Open M… 2000-08-26      76    76    74    69    68    67    61    58
#> # … with 307 more rows, and 68 more variables: wk9 <dbl>, wk10 <dbl>,
#> #   wk11 <dbl>, wk12 <dbl>, wk13 <dbl>, wk14 <dbl>, wk15 <dbl>, wk16 <dbl>,
#> #   wk17 <dbl>, wk18 <dbl>, wk19 <dbl>, wk20 <dbl>, wk21 <dbl>, wk22 <dbl>,
#> #   wk23 <dbl>, wk24 <dbl>, wk25 <dbl>, wk26 <dbl>, wk27 <dbl>, wk28 <dbl>,
#> #   wk29 <dbl>, wk30 <dbl>, wk31 <dbl>, wk32 <dbl>, wk33 <dbl>, wk34 <dbl>,
#> #   wk35 <dbl>, wk36 <dbl>, wk37 <dbl>, wk38 <dbl>, wk39 <dbl>, wk40 <dbl>,
#> #   wk41 <dbl>, wk42 <dbl>, wk43 <dbl>, wk44 <dbl>, wk45 <dbl>, wk46 <dbl>,
#> #   wk47 <dbl>, wk48 <dbl>, wk49 <dbl>, wk50 <dbl>, wk51 <dbl>, wk52 <dbl>,
#> #   wk53 <dbl>, wk54 <dbl>, wk55 <dbl>, wk56 <dbl>, wk57 <dbl>, wk58 <dbl>,
…
使用 pivot_longer()：

```r
billboard %>% 
  pivot_longer(
    cols = starts_with("wk"), 
    names_to = "week", 
    values_to = "rank",
    values_drop_na = TRUE
  )
#> # A tibble: 5,307 x 5
#>    artist         track                   date.entered week   rank
#>    <chr>          <chr>                   <date>       <chr> <dbl>
#>  1 2 Pac          Baby Don't Cry (Keep... 2000-02-26   wk1      87
#>  2 2Ge+her        The Hardest Part Of ... 2000-09-02   wk1      91
#>  3 3 Doors Down   Kryptonite              2000-04-08   wk1      81
#>  4 3 Doors Down   Loser                   2000-10-21   wk1      76
#>  5 504 Boyz       Wobble Wobble           2000-04-15   wk1      57
#>  6 98^0           Give Me Just One Nig... 2000-08-19   wk1      51
#>  7 A*Teens        Dancing Queen           2000-07-08   wk1      97
#>  8 Aaliyah        I Don't Wanna           2000-01-29   wk1      84
#>  9 Aaliyah        Try Again               2000-03-18   wk1      59
#> 10 Adams, Yolanda Open My Heart           2000-08-26   wk1      76
#> # … with 5,297 more rows
```

另外我们也注意到 week 变量的值实际上仅保留数字即可，pivot_longer() 函数可以直接实现：

```r
billboard %>% 
  pivot_longer(
    cols = starts_with("wk"), 
    names_to = "week", 
    names_prefix = "wk",
    names_transform = list(week = as.integer),
    values_to = "rank",
    values_drop_na = TRUE,
  )
#> # A tibble: 5,307 x 5
#>    artist  track                   date.entered week   rank
#>    <chr>   <chr>                   <date>       <chr> <dbl>
#>  1 2 Pac   Baby Don't Cry (Keep... 2000-02-26   wk1      87
#>  2 2 Pac   Baby Don't Cry (Keep... 2000-02-26   wk2      82
#>  3 2 Pac   Baby Don't Cry (Keep... 2000-02-26   wk3      72
#>  4 2 Pac   Baby Don't Cry (Keep... 2000-02-26   wk4      77
#>  5 2 Pac   Baby Don't Cry (Keep... 2000-02-26   wk5      87
#>  6 2 Pac   Baby Don't Cry (Keep... 2000-02-26   wk6      94
#>  7 2 Pac   Baby Don't Cry (Keep... 2000-02-26   wk7      99
#>  8 2Ge+her The Hardest Part Of ... 2000-09-02   wk1      91
#>  9 2Ge+her The Hardest Part Of ... 2000-09-02   wk2      87
#> 10 2Ge+her The Hardest Part Of ... 2000-09-02   wk3      92
#> # … with 5,297 more rows
```

或者这样也可以：

```r
billboard %>% 
  pivot_longer(
    cols = starts_with("wk"), 
    names_to = "week", 
    names_transform = list(week = readr::parse_number),
    values_to = "rank",
    values_drop_na = TRUE,
  )
#> # A tibble: 5,307 x 5
#>    artist  track                   date.entered  week  rank
#>    <chr>   <chr>                   <date>       <int> <dbl>
#>  1 2 Pac   Baby Don't Cry (Keep... 2000-02-26       1    87
#>  2 2 Pac   Baby Don't Cry (Keep... 2000-02-26       2    82
#>  3 2 Pac   Baby Don't Cry (Keep... 2000-02-26       3    72
#>  4 2 Pac   Baby Don't Cry (Keep... 2000-02-26       4    77
#>  5 2 Pac   Baby Don't Cry (Keep... 2000-02-26       5    87
#>  6 2 Pac   Baby Don't Cry (Keep... 2000-02-26       6    94
#>  7 2 Pac   Baby Don't Cry (Keep... 2000-02-26       7    99
#>  8 2Ge+her The Hardest Part Of ... 2000-09-02       1    91
#>  9 2Ge+her The Hardest Part Of ... 2000-09-02       2    87
#> 10 2Ge+her The Hardest Part Of ... 2000-09-02       3    92
#> # … with 5,297 more rows
```

如果你使用 gather() 函数则需要再增加一步：

```r
billboard %>% 
  gather(starts_with("wk"), key = "week", value = "rank", na.rm = T) %>% 
  mutate(week = str_remove_all(week, "wk"),
         week = as.integer(week))
#> # A tibble: 5,307 x 5
#>    artist         track                   date.entered  week  rank
#>    <chr>          <chr>                   <date>       <int> <dbl>
#>  1 2 Pac          Baby Don't Cry (Keep... 2000-02-26       1    87
#>  2 2Ge+her        The Hardest Part Of ... 2000-09-02       1    91
#>  3 3 Doors Down   Kryptonite              2000-04-08       1    81
#>  4 3 Doors Down   Loser                   2000-10-21       1    76
#>  5 504 Boyz       Wobble Wobble           2000-04-15       1    57
#>  6 98^0           Give Me Just One Nig... 2000-08-19       1    51
#>  7 A*Teens        Dancing Queen           2000-07-08       1    97
#>  8 Aaliyah        I Don't Wanna           2000-01-29       1    84
#>  9 Aaliyah        Try Again               2000-03-18       1    59
#> 10 Adams, Yolanda Open My Heart           2000-08-26       1    76
#> # … with 5,297 more rows
```
…
### 列名中包含多个变数

例如 who 数据：

```r
read_csv('who.csv') -> who
who
#> # A tibble: 7,240 x 60
#>    country  iso2  iso3   year new_sp_m014 new_sp_m1524 new_sp_m2534 new_sp_m3544
#>    <chr>    <chr> <chr> <dbl>       <dbl>        <dbl>        <dbl>        <dbl>
#>  1 Afghani… AF    AFG    1980          NA           NA           NA           NA
#>  2 Afghani… AF    AFG    1981          NA           NA           NA           NA
#>  3 Afghani… AF    AFG    1982          NA           NA           NA           NA
#>  4 Afghani… AF    AFG    1983          NA           NA           NA           NA
#>  5 Afghani… AF    AFG    1984          NA           NA           NA           NA
#>  6 Afghani… AF    AFG    1985          NA           NA           NA           NA
#>  7 Afghani… AF    AFG    1986          NA           NA           NA           NA
#>  8 Afghani… AF    AFG    1987          NA           NA           NA           NA
#>  9 Afghani… AF    AFG    1988          NA           NA           NA           NA
#> 10 Afghani… AF    AFG    1989          NA           NA           NA           NA
#> # … with 7,230 more rows, and 52 more variables: new_sp_m4554 <dbl>,
#> #   new_sp_m5564 <dbl>, new_sp_m65 <dbl>, new_sp_f014 <dbl>,
#> #   new_sp_f1524 <dbl>, new_sp_f2534 <dbl>, new_sp_f3544 <dbl>,
#> #   new_sp_f4554 <dbl>, new_sp_f5564 <dbl>, new_sp_f65 <dbl>,
#> #   new_sn_m014 <dbl>, new_sn_m1524 <dbl>, new_sn_m2534 <dbl>,
#> #   new_sn_m3544 <dbl>, new_sn_m4554 <dbl>, new_sn_m5564 <dbl>,
#> #   new_sn_m65 <dbl>, new_sn_f014 <dbl>, new_sn_f1524 <dbl>,
#> #   new_sn_f2534 <dbl>, new_sn_f3544 <dbl>, new_sn_f4554 <dbl>,
#> #   new_sn_f5564 <dbl>, new_sn_f65 <dbl>, new_ep_m014 <dbl>,
…
这是个宽数据，它的变量名包含三个变数，`new_*_**`，对于这样的数据集我们可以这样：

```r
who %>% pivot_longer(
  cols = new_sp_m014:newrel_f65,
  names_to = c("diagnosis", "gender", "age"), 
  names_pattern = "new_?(.*)_(.)(.*)",
  values_to = "count",
  values_drop_na = TRUE
)
#> # A tibble: 76,046 x 8
#>    country     iso2  iso3   year diagnosis gender age   count
#>    <chr>       <chr> <chr> <dbl> <chr>     <chr>  <chr> <dbl>
#>  1 Afghanistan AF    AFG    1997 sp        m      014       0
#>  2 Afghanistan AF    AFG    1997 sp        m      1524     10
#>  3 Afghanistan AF    AFG    1997 sp        m      2534      6
#>  4 Afghanistan AF    AFG    1997 sp        m      3544      3
#>  5 Afghanistan AF    AFG    1997 sp        m      4554      5
#>  6 Afghanistan AF    AFG    1997 sp        m      5564      2
#>  7 Afghanistan AF    AFG    1997 sp        m      65        0
#>  8 Afghanistan AF    AFG    1997 sp        f      014       5
#>  9 Afghanistan AF    AFG    1997 sp        f      1524     38
#> 10 Afghanistan AF    AFG    1997 sp        f      2534     36
#> # … with 76,036 more rows
```
…
  names_to = c("diagnosis", "gender", "age"), 
  names_pattern = "new_?(.*)_(.)(.*)",
  names_transform = list(
    gender = ~ readr::parse_factor(.x, levels = c("f", "m")),
    age = ~ readr::parse_factor(
      .x,
      levels = c("014", "1524", "2534", "3544", "4554", "5564", "65"), 
      ordered = TRUE
    )
  ),
  values_to = "count",
  values_drop_na = TRUE
)

#> # A tibble: 76,046 x 8
#>    country     iso2  iso3   year diagnosis gender age   count
#>    <chr>       <chr> <chr> <dbl> <chr>     <fct>  <ord> <dbl>
#>  1 Afghanistan AF    AFG    1997 sp        m      014       0
#>  2 Afghanistan AF    AFG    1997 sp        m      1524     10
#>  3 Afghanistan AF    AFG    1997 sp        m      2534      6
#>  4 Afghanistan AF    AFG    1997 sp        m      3544      3
#>  5 Afghanistan AF    AFG    1997 sp        m      4554      5
#>  6 Afghanistan AF    AFG    1997 sp        m      5564      2
#>  7 Afghanistan AF    AFG    1997 sp        m      65        0
#>  8 Afghanistan AF    AFG    1997 sp        f      014       5
#>  9 Afghanistan AF    AFG    1997 sp        f      1524     38
#> 10 Afghanistan AF    AFG    1997 sp        f      2534     36
#> # … with 76,036 more rows
```

大家可以注意到，这个 pivot_\* 函数的功能好多，越来越复杂了，所以这也是我不推荐使用的原因（我平常主要用 gather 和 spread），这是因为功能越多的函数记忆起来越困难，如果实在懒得记忆，不如把简单的函数灵活组合使用，例如上面的代码使用 gather 也可以实现：

```r
who %>% 
  gather(new_sp_m014:newrel_f65, key = "var", value = "count") %>% 
  mutate(diagnosis = str_match(var, "new_?(.*)_(.)(.*)")[,2],
           gender = str_match(var, "new_?(.*)_(.)(.*)")[,3],
           age = str_match(var, "new_?(.*)_(.)(.*)")[,4]) %>% 
  select(-var) %>% 
  subset(!is.na(count))
#> # A tibble: 76,046 x 8
#>    country     iso2  iso3   year count diagnosis gender age  
#>    <chr>       <chr> <chr> <dbl> <dbl> <chr>     <chr>  <chr>
#>  1 Afghanistan AF    AFG    1997     0 sp        m      014  
#>  2 Afghanistan AF    AFG    1998    30 sp        m      014  
#>  3 Afghanistan AF    AFG    1999     8 sp        m      014  
#>  4 Afghanistan AF    AFG    2000    52 sp        m      014  
#>  5 Afghanistan AF    AFG    2001   129 sp        m      014  
#>  6 Afghanistan AF    AFG    2002    90 sp        m      014  
#>  7 Afghanistan AF    AFG    2003   127 sp        m      014  
#>  8 Afghanistan AF    AFG    2004   139 sp        m      014  
#>  9 Afghanistan AF    AFG    2005   151 sp        m      014  
#> 10 Afghanistan AF    AFG    2006   193 sp        m      014  
#> # … with 76,036 more rows
```
…
这个数据框包含两类变量，可以这样转换成长数据：

```r
anscombe %>% 
  pivot_longer(everything(), 
    names_to = c(".value", "set"), 
    names_pattern = "(.)(.)"
  ) %>% 
  arrange(set, x, y)
#> # A tibble: 44 x 3
#>    set       x     y
#>    <chr> <dbl> <dbl>
#>  1 1         4  4.26
#>  2 1         5  5.68
#>  3 1         6  7.24
#>  4 1         7  4.82
#>  5 1         8  6.95
#>  6 1         9  8.81
#>  7 1        10  8.04
#>  8 1        11  8.33
#>  9 1        12 10.8 
#> 10 1        13  7.58
#> # … with 34 more rows
```

使用 gather 函数可以这样：

```r
anscombe %>% 
  mutate(id = row.names(.)) %>% 
  gather(!id, key = "key", value = "val") %>% 
  mutate(var = str_match(key, "(.)(.)")[,2],
         set = str_match(key, "(.)(.)")[,3]) %>% 
  select(-key) %>% 
  spread(var, val) %>% 
  arrange(set, x, y) %>% 
  select(-id)
#> # A tibble: 44 x 3
#>    set       x     y
#>    <chr> <dbl> <dbl>
#>  1 1         4  4.26
#>  2 1         5  5.68
#>  3 1         6  7.24
#>  4 1         7  4.82
#>  5 1         8  6.95
#>  6 1         9  8.81
#>  7 1        10  8.04
#>  8 1        11  8.33
#>  9 1        12 10.8 
#> 10 1        13  7.58
#> # … with 34 more rows
```
…
## 长数据转换成宽数据

例如 fish_encounters 数据：

```r
read_csv('fish_encounters.csv') -> fish_encounters
fish_encounters

#> # A tibble: 114 x 3
#>     fish station  seen
#>    <dbl> <chr>   <dbl>
#>  1  4842 Release     1
#>  2  4842 I80_1       1
#>  3  4842 Lisbon      1
#>  4  4842 Rstr        1
#>  5  4842 Base_TD     1
#>  6  4842 BCE         1
#>  7  4842 BCW         1
#>  8  4842 BCE2        1
#>  9  4842 BCW2        1
#> 10  4842 MAE         1
#> # … with 104 more rows
```
…
```stata
import delimited using fish_encounters.csv, clear
spread station seen
mvencode BCE - Rstr, mv(. = 0)
```

### 数据透视：加总

pivot_wider 可以在长宽转换的同时还可以进行简单的加总运行，例如：

```r
read_csv('warpbreaks.csv') -> warpbreaks
warpbreaks

#> # A tibble: 54 x 3
#>    wool  tension breaks
#>    <chr> <chr>    <dbl>
#>  1 A     L           26
#>  2 A     L           30
#>  3 A     L           54
#>  4 A     L           25
#>  5 A     L           70
#>  6 A     L           52
#>  7 A     L           51
#>  8 A     L           26
#>  9 A     L           67
#> 10 A     M           18
#> # … with 44 more rows
```
…
```stata
import delimited using warpbreaks.csv, clear
collapse breaks, by(wool tension)
spread wool breaks
```

### 从多个变量生成列名

例如这个数据：

```r
read_csv('production.csv') -> production
production

#> # A tibble: 45 x 4
#>    product country  year production
#>    <chr>   <chr>   <dbl>      <dbl>
#>  1 A       AI       2000     -0.184
#>  2 A       AI       2001     -0.210
#>  3 A       AI       2002      1.37 
#>  4 A       AI       2003     -2.03 
#>  5 A       AI       2004      1.98 
#>  6 A       AI       2005     -2.32 
#>  7 A       AI       2006      0.292
#>  8 A       AI       2007     -0.352
#>  9 A       AI       2008     -1.37 
#> 10 A       AI       2009      0.524
#> # … with 35 more rows
```
…
